Алексей&Александр/qwerty/simulation/qsim/qwerty.msim.vcd
$comment
	File created using the following command:
		vcd file qwerty.msim.vcd -direction
$end
$date
	Tue Jul 19 19:55:35 2016
$end
$version
	ModelSim Version 10.4d
$end
$timescale
	1ps
$end

$scope module nachalomazahizma_vlg_vec_tst $end
$var reg 4 ! m [3:0] $end
$var reg 4 " n [3:0] $end
$var wire 1 # p [3] $end
$var wire 1 $ p [2] $end
$var wire 1 % p [1] $end
$var wire 1 & p [0] $end

$scope module i1 $end
$var wire 1 ' gnd $end
$var wire 1 ( vcc $end
$var wire 1 ) unknown $end
$var tri1 1 * devclrn $end
$var tri1 1 + devpor $end
$var tri1 1 , devoe $end
$var wire 1 - p[0]~output_o $end
$var wire 1 . p[1]~output_o $end
$var wire 1 / p[2]~output_o $end
$var wire 1 0 p[3]~output_o $end
$var wire 1 1 n[0]~input_o $end
$var wire 1 2 m[0]~input_o $end
$var wire 1 3 cal|FA1|s~0_combout $end
$var wire 1 4 n[1]~input_o $end
$var wire 1 5 m[1]~input_o $end
$var wire 1 6 cal|FA2|s~0_combout $end
$var wire 1 7 n[2]~input_o $end
$var wire 1 8 m[2]~input_o $end
$var wire 1 9 cal|FA3|s~0_combout $end
$var wire 1 : n[3]~input_o $end
$var wire 1 ; m[3]~input_o $end
$var wire 1 < cal|FA4|s~0_combout $end
$var wire 1 = cal|FA4|s~1_combout $end
$upscope $end
$upscope $end
$enddefinitions $end
#0
$dumpvars
b101 !
b0 "
1&
1%
0$
1#
0'
1(
x)
1*
1+
1,
1-
1.
0/
10
01
12
13
04
05
16
07
18
09
0:
0;
0<
1=
$end
#60000
b1 "
11
19
06
03
0-
0.
1/
1$
0%
0&
#120000
b11 "
b10 "
01
14
13
1-
1&
#190000
b11 "
11
16
03
0-
1.
1%
0&
#250000
b111 "
b101 "
b100 "
01
04
17
13
1-
1&
#320000
b101 "
11
1<
09
06
03
0-
0.
0/
0$
0%
0&
0=
00
0#
#380000
b111 "
b110 "
01
14
13
1-
1&
#450000
b111 "
11
16
03
0-
1.
1%
0&
#500000
b1111 "
b1011 "
b1001 "
b1000 "
01
04
07
1:
0<
1=
13
1-
10
1#
1&
0=
00
0#
#580000
b1001 "
11
19
06
03
0-
0.
1/
1$
0%
0&
#640000
b1011 "
b1010 "
01
14
13
1-
1&
#700000
b1011 "
11
16
03
0-
1.
1%
0&
#750000
b1111 "
b1101 "
b1100 "
01
04
17
13
1-
1&
#840000
b1101 "
11
1<
09
06
03
0-
0.
0/
0$
0%
0&
1=
10
1#
#900000
b1111 "
b1110 "
01
14
13
1-
1&
#960000
b1111 "
11
16
03
0-
1.
1%
0&
