Константин/quatrum_projects/simulation/qsim/main.msim.vcd
$comment
	File created using the following command:
		vcd file main.msim.vcd -direction
$end
$date
	Fri Jul 22 14:43:14 2016
$end
$version
	ModelSim Version 10.4d
$end
$timescale
	1ps
$end

$scope module func_unit_vlg_vec_tst $end
$var reg 16 ! A [15:0] $end
$var reg 16 " B [15:0] $end
$var reg 4 # sel [3:0] $end
$var wire 1 $ C $end
$var wire 1 % F [15] $end
$var wire 1 & F [14] $end
$var wire 1 ' F [13] $end
$var wire 1 ( F [12] $end
$var wire 1 ) F [11] $end
$var wire 1 * F [10] $end
$var wire 1 + F [9] $end
$var wire 1 , F [8] $end
$var wire 1 - F [7] $end
$var wire 1 . F [6] $end
$var wire 1 / F [5] $end
$var wire 1 0 F [4] $end
$var wire 1 1 F [3] $end
$var wire 1 2 F [2] $end
$var wire 1 3 F [1] $end
$var wire 1 4 F [0] $end
$var wire 1 5 N $end
$var wire 1 6 V $end
$var wire 1 7 Z $end

$scope module i1 $end
$var wire 1 8 gnd $end
$var wire 1 9 vcc $end
$var wire 1 : unknown $end
$var tri1 1 ; devclrn $end
$var tri1 1 < devpor $end
$var tri1 1 = devoe $end
$var wire 1 > F[0]~output_o $end
$var wire 1 ? F[1]~output_o $end
$var wire 1 @ F[2]~output_o $end
$var wire 1 A F[3]~output_o $end
$var wire 1 B F[4]~output_o $end
$var wire 1 C F[5]~output_o $end
$var wire 1 D F[6]~output_o $end
$var wire 1 E F[7]~output_o $end
$var wire 1 F F[8]~output_o $end
$var wire 1 G F[9]~output_o $end
$var wire 1 H F[10]~output_o $end
$var wire 1 I F[11]~output_o $end
$var wire 1 J F[12]~output_o $end
$var wire 1 K F[13]~output_o $end
$var wire 1 L F[14]~output_o $end
$var wire 1 M F[15]~output_o $end
$var wire 1 N V~output_o $end
$var wire 1 O C~output_o $end
$var wire 1 P N~output_o $end
$var wire 1 Q Z~output_o $end
$var wire 1 R sel[3]~input_o $end
$var wire 1 S B[1]~input_o $end
$var wire 1 T sel[0]~input_o $end
$var wire 1 U B[15]~input_o $end
$var wire 1 V sel[1]~input_o $end
$var wire 1 W m_16x3|F[0]~0_combout $end
$var wire 1 X sel[2]~input_o $end
$var wire 1 Y A[0]~input_o $end
$var wire 1 Z B[0]~input_o $end
$var wire 1 [ _alu|lu|Mux15~0_combout $end
$var wire 1 \ _alu|au|Add0~1_sumout $end
$var wire 1 ] m_16x3|F[0]~1_combout $end
$var wire 1 ^ A[1]~input_o $end
$var wire 1 _ _alu|au|Add0~2 $end
$var wire 1 ` _alu|au|Add0~5_sumout $end
$var wire 1 a _alu|au|s|sum2|C~combout $end
$var wire 1 b m_16x3|F[1]~2_combout $end
$var wire 1 c B[2]~input_o $end
$var wire 1 d m_16x3|F[1]~3_combout $end
$var wire 1 e m_16x3|F[1]~4_combout $end
$var wire 1 f _alu|au|s|sum2|OUT_SH~combout $end
$var wire 1 g A[2]~input_o $end
$var wire 1 h _alu|au|Add0~6 $end
$var wire 1 i _alu|au|Add0~9_sumout $end
$var wire 1 j _alu|au|s|sum3|C~combout $end
$var wire 1 k m_16x3|F[2]~5_combout $end
$var wire 1 l B[3]~input_o $end
$var wire 1 m m_16x3|F[2]~6_combout $end
$var wire 1 n _alu|au|s|sum3|OUT_SH~combout $end
$var wire 1 o A[3]~input_o $end
$var wire 1 p _alu|au|Add0~10 $end
$var wire 1 q _alu|au|Add0~13_sumout $end
$var wire 1 r _alu|au|s|sum4|C~combout $end
$var wire 1 s m_16x3|F[3]~7_combout $end
$var wire 1 t B[4]~input_o $end
$var wire 1 u m_16x3|F[3]~8_combout $end
$var wire 1 v A[4]~input_o $end
$var wire 1 w _alu|au|Add0~14 $end
$var wire 1 x _alu|au|Add0~17_sumout $end
$var wire 1 y _alu|au|s|sum5|C~combout $end
$var wire 1 z m_16x3|F[4]~9_combout $end
$var wire 1 { B[5]~input_o $end
$var wire 1 | m_16x3|F[4]~10_combout $end
$var wire 1 } _alu|au|s|sum5|OUT_SH~combout $end
$var wire 1 ~ A[5]~input_o $end
$var wire 1 !! _alu|au|Add0~18 $end
$var wire 1 "! _alu|au|Add0~21_sumout $end
$var wire 1 #! _alu|au|s|sum6|OUT_SH~0_combout $end
$var wire 1 $! _alu|au|s|sum6|C~combout $end
$var wire 1 %! m_16x3|F[5]~11_combout $end
$var wire 1 &! B[6]~input_o $end
$var wire 1 '! m_16x3|F[5]~12_combout $end
$var wire 1 (! _alu|au|s|sum6|OUT_SH~1_combout $end
$var wire 1 )! _alu|au|s|sum6|OUT_SH~2_combout $end
$var wire 1 *! A[6]~input_o $end
$var wire 1 +! _alu|au|Add0~22 $end
$var wire 1 ,! _alu|au|Add0~25_sumout $end
$var wire 1 -! _alu|au|s|sum7|OUT_SH~0_combout $end
$var wire 1 .! _alu|au|s|sum7|C~combout $end
$var wire 1 /! m_16x3|F[6]~13_combout $end
$var wire 1 0! B[7]~input_o $end
$var wire 1 1! m_16x3|F[6]~14_combout $end
$var wire 1 2! _alu|au|s|sum7|OUT_SH~combout $end
$var wire 1 3! A[7]~input_o $end
$var wire 1 4! _alu|au|Add0~26 $end
$var wire 1 5! _alu|au|Add0~29_sumout $end
$var wire 1 6! _alu|au|s|sum8|OUT_SH~0_combout $end
$var wire 1 7! _alu|au|s|sum8|C~combout $end
$var wire 1 8! m_16x3|F[7]~15_combout $end
$var wire 1 9! B[8]~input_o $end
$var wire 1 :! m_16x3|F[7]~16_combout $end
$var wire 1 ;! _alu|au|s|sum8|OUT_SH~combout $end
$var wire 1 <! A[8]~input_o $end
$var wire 1 =! _alu|au|Add0~30 $end
$var wire 1 >! _alu|au|Add0~33_sumout $end
$var wire 1 ?! _alu|au|s|sum9|C~combout $end
$var wire 1 @! m_16x3|F[8]~17_combout $end
$var wire 1 A! B[9]~input_o $end
$var wire 1 B! m_16x3|F[8]~18_combout $end
$var wire 1 C! _alu|au|s|sum8|OUT_SH~1_combout $end
$var wire 1 D! _alu|au|s|sum8|OUT_SH~2_combout $end
$var wire 1 E! A[9]~input_o $end
$var wire 1 F! _alu|au|Add0~34 $end
$var wire 1 G! _alu|au|Add0~37_sumout $end
$var wire 1 H! _alu|au|s|sum10|C~combout $end
$var wire 1 I! m_16x3|F[9]~19_combout $end
$var wire 1 J! B[10]~input_o $end
$var wire 1 K! m_16x3|F[9]~20_combout $end
$var wire 1 L! A[10]~input_o $end
$var wire 1 M! _alu|au|Add0~38 $end
$var wire 1 N! _alu|au|Add0~41_sumout $end
$var wire 1 O! _alu|au|s|sum11|OUT_SH~0_combout $end
$var wire 1 P! _alu|au|s|sum11|C~combout $end
$var wire 1 Q! m_16x3|F[10]~21_combout $end
$var wire 1 R! B[11]~input_o $end
$var wire 1 S! m_16x3|F[10]~22_combout $end
$var wire 1 T! _alu|au|s|sum4|OUT_SH~combout $end
$var wire 1 U! _alu|au|s|sum7|OUT_SH~1_combout $end
$var wire 1 V! _alu|au|s|sum7|OUT_SH~2_combout $end
$var wire 1 W! _alu|au|s|sum9|OUT_SH~combout $end
$var wire 1 X! A[11]~input_o $end
$var wire 1 Y! _alu|au|Add0~42 $end
$var wire 1 Z! _alu|au|Add0~45_sumout $end
$var wire 1 [! _alu|au|s|sum12|OUT_SH~0_combout $end
$var wire 1 \! _alu|au|s|sum12|C~combout $end
$var wire 1 ]! m_16x3|F[11]~23_combout $end
$var wire 1 ^! B[12]~input_o $end
$var wire 1 _! m_16x3|F[11]~24_combout $end
$var wire 1 `! _alu|au|s|sum10|OUT_SH~combout $end
$var wire 1 a! A[12]~input_o $end
$var wire 1 b! _alu|au|Add0~46 $end
$var wire 1 c! _alu|au|Add0~49_sumout $end
$var wire 1 d! _alu|au|s|sum13|OUT_SH~0_combout $end
$var wire 1 e! _alu|au|s|sum13|C~combout $end
$var wire 1 f! m_16x3|F[12]~25_combout $end
$var wire 1 g! B[13]~input_o $end
$var wire 1 h! m_16x3|F[12]~26_combout $end
$var wire 1 i! _alu|au|s|sum12|OUT_SH~1_combout $end
$var wire 1 j! _alu|au|s|sum12|OUT_SH~2_combout $end
$var wire 1 k! A[13]~input_o $end
$var wire 1 l! _alu|au|Add0~50 $end
$var wire 1 m! _alu|au|Add0~53_sumout $end
$var wire 1 n! _alu|au|s|sum14|OUT_SH~0_combout $end
$var wire 1 o! _alu|au|s|sum14|C~combout $end
$var wire 1 p! m_16x3|F[13]~27_combout $end
$var wire 1 q! B[14]~input_o $end
$var wire 1 r! m_16x3|F[13]~28_combout $end
$var wire 1 s! _alu|au|s|sum12|OUT_SH~combout $end
$var wire 1 t! A[14]~input_o $end
$var wire 1 u! _alu|au|Add0~54 $end
$var wire 1 v! _alu|au|Add0~57_sumout $end
$var wire 1 w! _alu|au|s|sum15|OUT_SH~0_combout $end
$var wire 1 x! _alu|au|s|sum15|C~combout $end
$var wire 1 y! m_16x3|F[14]~29_combout $end
$var wire 1 z! m_16x3|F[14]~30_combout $end
$var wire 1 {! _alu|au|s|sum14|OUT_SH~combout $end
$var wire 1 |! A[15]~input_o $end
$var wire 1 }! _alu|au|Add0~58 $end
$var wire 1 ~! _alu|au|Add0~61_sumout $end
$var wire 1 !" _alu|au|s|sum16|OUT_SH~0_combout $end
$var wire 1 "" m_16x3|F[15]~31_combout $end
$var wire 1 #" _alu|lu|Mux0~0_combout $end
$var wire 1 $" m_16x3|F[15]~32_combout $end
$var wire 1 %" m_16x3|F[15]~33_combout $end
$var wire 1 &" m_16x3|F[15]~34_combout $end
$var wire 1 '" _alu|au|V~combout $end
$var wire 1 (" _alu|au|s|sum16|OUT_SH~combout $end
$var wire 1 )" _alu|au|N~combout $end
$var wire 1 *" _alu|au|WideOr0~0_combout $end
$var wire 1 +" _alu|au|WideOr0~1_combout $end
$var wire 1 ," _alu|au|WideOr0~2_combout $end
$var wire 1 -" _alu|au|WideOr0~3_combout $end
$var wire 1 ." _alu|au|WideOr0~4_combout $end
$var wire 1 /" _alu|au|WideOr0~5_combout $end
$var wire 1 0" _alu|au|WideOr0~combout $end
$upscope $end
$upscope $end
$enddefinitions $end
#0
$dumpvars
b100001111001100 !
b111011001000000 "
b11 #
0$
04
03
12
11
00
0/
0.
1-
1,
0+
1*
1)
0(
0'
1&
1%
15
06
07
08
19
x:
1;
1<
1=
0>
0?
1@
1A
0B
0C
0D
1E
1F
0G
1H
1I
0J
0K
1L
1M
0N
0O
1P
0Q
0R
0S
1T
0U
1V
0W
0X
0Y
0Z
1[
0\
0]
0^
1_
0`
0a
1b
0c
0d
0e
0f
1g
1h
0i
1j
0k
0l
1m
0n
1o
1p
0q
1r
0s
0t
1u
0v
1w
0x
0y
1z
0{
0|
0}
0~
1!!
0"!
0#!
0$!
1%!
1&!
0'!
0(!
0)!
1*!
1+!
1,!
0-!
0.!
0/!
00!
01!
12!
13!
04!
15!
06!
17!
08!
09!
1:!
0;!
1<!
0=!
1>!
1?!
0@!
1A!
1B!
0C!
1D!
1E!
0F!
0G!
0H!
0I!
1J!
0K!
0L!
0M!
0N!
0O!
1P!
1Q!
0R!
1S!
0T!
0U!
1V!
0W!
0X!
0Y!
1Z!
1[!
1\!
1]!
1^!
1_!
0`!
0a!
0b!
0c!
0d!
0e!
1f!
1g!
0h!
0i!
0j!
0k!
0l!
0m!
0n!
0o!
1p!
1q!
0r!
0s!
1t!
0u!
0v!
1w!
1x!
0y!
1z!
1{!
0|!
0}!
1~!
1!"
1""
1#"
0$"
0%"
1&"
0'"
0("
1)"
1*"
0+"
0,"
0-"
0."
1/"
10"
$end
#50000
b1111001100 !
b10001111001100 !
b10101111001100 !
b10100111001100 !
b10100011001100 !
b10100001001100 !
b10100000001100 !
b10100000101100 !
b10100000111100 !
b1111011001000000 "
b1111011000000000 "
b1111011000001000 "
b1111011000001100 "
1c
1l
0&!
1U
1v
1~
0*!
03!
0<!
0E!
1X!
1k!
0t!
1y!
0w!
0p!
1n!
1s!
1j!
1e!
0]!
0[!
1`!
0P!
1I!
1H!
1@!
0?!
0D!
1;!
18!
16!
0V!
02!
1/!
1-!
0%!
1#!
0z
1y
0~!
14!
0,!
0w
1q
0p
1i
1=!
05!
0!!
1x
0q
1T!
1n
0j
1(!
1}
0y
0r
0-!
0!"
1$!
1.!
1W!
1?!
0H!
0\!
0/"
1o!
0x!
0)"
1|
0B!
1K!
0S!
1h!
1J
0H
1G
0F
1B
0P
1F!
0>!
0+!
1"!
0$!
1y
1+"
06!
05
10
0,
1+
0*
1(
0z!
1r!
0_!
0K!
1B!
11!
1'!
0&"
0u
0|
0m
0@
0B
0A
0M
1C
1D
1F
0G
0I
1K
0L
1G!
04!
1,!
07!
1)!
0#!
0?!
0&
1'
0)
0+
1,
1.
1/
0%
01
00
02
1|
0'!
0C
1B
0=!
15!
0(!
1$!
12!
1-!
1H!
10
0/
0B!
0:!
0E
0F
0F!
1>!
1U!
0.!
17!
0;!
16!
0,
0-
1K!
1'!
1C
1G
0G!
1C!
07!
1P!
0W!
1+
1/
1:!
01!
0D
1E
0P!
1-
0.
1S!
0:!
0E
1H
1*
0-
0S!
0H
0*
#100000
b1010100000111100 !
b1010110000111100 !
b1010110000111101 !
b1101011000001100 "
b1100011000001100 "
b1100111000001100 "
b1100101000001100 "
b1100100000001100 "
b1100100100001100 "
b1100100100001110 "
b1011 #
b1111 #
b1101 #
b1000110000111101 !
b1000010000111101 !
b1000010100111101 !
b1000010110111101 !
b1000010110011101 !
b1000010110001101 !
b100100100001110 "
b100100100000110 "
b100100100000010 "
0V
1X
1R
1S
0c
0l
19!
0A!
0J!
1R!
0^!
0g!
0U
1Y
0v
0~
13!
1<!
1L!
0X!
0k!
1|!
1!"
0n!
0s!
0j!
0e!
1]!
1[!
1O!
1?!
1D!
06!
0)!
1#!
0y
0*"
1~!
1W
1m!
0f!
1c!
0Z!
1N!
0I!
1G!
0>!
1s
1q
1k
1p
0i
0h
1`
0""
1d
0/!
1)"
0r!
0|
1m
0'!
0C
1@
0B
0K
1P
1w
0q
0p
1i
0n
1a
0+"
1j
1(!
1r
0`!
0H!
0?!
1i!
0O!
0[!
0o!
1d!
1n!
0!"
1,"
0$!
1.!
0C!
17!
15
0'
00
12
0/
1r!
0h!
1S!
0K!
1:!
0m
1]
1("
1'"
1N
1O
1>
0@
1E
0G
1H
0J
1K
1!!
0x
0w
1q
1/"
1e!
0i!
1\!
1P!
0{!
0.!
0,"
0(!
0}
1y
1n
0j
1'
0(
1*
0+
1-
02
14
1$
16
1+!
0"!
0!!
1x
02!
1$!
1.!
0/"
1{!
1o!
0U!
14!
0,!
0+!
1"!
07!
1(!
1}
0y
0#!
1=!
05!
04!
1,!
0(!
0.!
1U!
1#!
0-!
1>!
0=!
15!
0U!
1(!
0$!
1;!
12!
1-!
0D!
16!
0>!
1C!
1U!
0;!
1D!
06!
0C!
17!
#150000
b1000010110000101 !
b1000010110000001 !
b1000010110000011 !
b100100100100010 "
b100100100110010 "
b1100 #
b1000011110000011 !
b1000011111000011 !
b100100101110010 "
b11111000011 !
b110100101110010 "
b111100101110010 "
b111100101110000 "
b1000 #
b10011111000011 !
b10011111010011 !
b111100101110100 "
0T
0X
0S
1c
1t
1{
1&!
1^!
1g!
1^
0g
0o
1v
1*!
1E!
1k!
0|!
0#"
1!"
0{!
1x!
1p!
0n!
1H!
1V!
1/!
0-!
1z
1y
0T!
0s
0r
0k
1j
1f
0b
0a
0W
0d
1$"
0~!
0y!
1v!
0]!
1Z!
0Q!
0N!
0G!
1>!
08!
05!
0q
0_
0[
0("
0'"
1h!
1_!
1'!
1|
1u
1e
1?
1A
1B
1C
1I
1J
0N
0O
0`
0y
1r
0D!
16!
0H!
1?!
1s!
0e!
1O!
1[!
1w!
0!"
1%"
0j
0U!
1.!
0o!
0$
06
1(
1)
1/
10
11
13
0]
0S!
0_!
0)"
1'"
1z!
1K!
11!
0|
0e
0?
0B
1D
1G
1L
1N
0P
0I
0H
0>
0x!
1i!
0\!
0P!
1C!
07!
0n
0f
1a
04
0*
0)
05
16
1&
1+
1.
00
03
1&"
1M
1j
0r
1o!
1%
#200000
b11011111010011 !
b11100101110100 "
b111011111010011 !
b11000101110100 "
b11001101110100 "
b11001001110100 "
b1010 #
b111111111010011 !
b111111011010011 !
b111111011110011 !
b1011001001110100 "
b1011001001010100 "
b111110011110011 !
b1111110011110011 !
b1001001001010100 "
b1000001001010100 "
b1101110011110011 !
b1000001001010000 "
1V
0c
0{
09!
1A!
0R!
0^!
0g!
0q!
1U
1~
0<!
0E!
1X!
1a!
0k!
1t!
1|!
1!"
1y!
0w!
0p!
1n!
1f!
0d!
1j!
1]!
0[!
0i!
1`!
1\!
1P!
1I!
1H!
0@!
0?!
1)!
1%!
0#!
1~!
1W
0$"
0v!
0m!
0c!
0Z!
1G!
0>!
0"!
0i
1Q!
18!
0/!
0z
1b
1[
1("
0'"
0z!
0r!
0h!
1S!
0K!
01!
0u
0A
0D
0G
1H
0J
0K
0L
0N
1O
0j
0)!
1#!
1W!
1?!
0s!
0j!
1[!
1/"
1{!
0o!
1d!
0n!
1w!
0%"
0!"
0(!
1$!
1$
06
0&
0'
0(
1*
0+
0.
01
1]
1)"
1P
1>
0.!
1x!
0/"
1e!
1(!
0$!
14
15
0&"
1'"
1N
0M
1.!
0%
16
#250000
b1000001011010000 "
b1000001011010001 "
b1000011011010001 "
b10 #
b1101110001110011 !
b1000011011011001 "
b1101110001111011 !
b11 #
b1101110000111011 !
b1100011011011001 "
b1001110000111011 !
b1100010011011001 "
b1100010111011001 "
b1001010000111011 !
b1001010000011011 !
b100010111011001 "
b1010000011011 !
b11010000011011 !
b100010111011101 "
1o
0~
0*!
03!
0X!
1k!
0t!
0|!
1T
0R
1Z
1c
1l
10!
19!
0A!
1J!
1q!
0U
1#"
0W
1$"
0Q!
1@!
1k
1\
0[
1""
1m!
0f!
1c!
1Z!
1/!
0,!
1"!
0x
0b
1`
1!"
0w!
1n!
0[!
1;!
06!
0V!
0C!
02!
1-!
0#!
1r
1z!
1_!
1K!
1B!
0:!
11!
1e
1h!
0'!
0("
0'"
0N
0O
0C
1J
1?
1D
0E
1F
1G
1I
1L
0(!
1$!
0.!
0?!
0\!
1/"
1f
0}
1y
1#!
0-!
1[!
0{!
0d!
0n!
1&
1)
1+
1,
0-
1.
13
1(
0/
0$
06
1u
1&"
0]
0>
1M
1A
0/"
1o!
0e!
1\!
1j
11
1%
04
1|
0_!
0B!
01!
1'!
1C
0D
0F
0I
1B
10
0)
0,
0.
1/
1m
1_!
0h!
1r!
1K
0J
1I
1@
12
1)
0(
1'
#300000
b11010000011111 !
b11010000011101 !
b100010111011111 "
b10010000011101 !
b100110111011111 "
b10010100011101 !
b100110111111111 "
b10011100011101 !
b110110111111111 "
b111110111111111 "
b111110101111111 "
b111110101111110 "
b10011100010101 !
b10 #
b110011100010101 !
b111110001111110 "
b110111100010101 !
b1111110001111110 "
b100111100010101 !
b1111110001111010 "
0T
0Z
1S
0c
1{
00!
09!
1R!
1^!
1g!
1U
0^
1g
0o
1<!
1E!
1X!
0a!
0k!
1t!
0y!
1w!
1{!
0x!
1p!
1n!
0o!
1f!
1d!
1s!
1j!
1e!
0]!
0[!
1i!
0`!
0\!
0P!
0H!
1?!
1s
0r
1n
0j
1*"
1b
0a
1W
08!
0\
1[
1v!
1N!
0G!
1,!
1x
1q
0)"
1("
0&"
0M
1O
0P
1+"
1T!
1(!
1}
1-!
0i!
1`!
1\!
1P!
1H!
0e!
0O!
0w!
0*"
0n
0f
1a
1/"
0{!
05
1$
0%
1]
0e
0m
0u
1B!
0K!
0S!
0_!
1h!
0r!
0z!
0L
0K
1J
0I
0H
0G
1F
0A
0@
0?
1>
0+"
0T!
1j
0y
1r
1x!
0P!
1U!
12!
0$!
14
03
02
01
1,
0+
0*
0)
1(
0'
0&
1e
0h!
1K!
1S!
1_!
1I
1H
1G
0J
1?
17!
13
0(
1+
1*
1)
0'!
0S!
1z!
1u
0|
1m
1@
0B
1A
1L
0H
0C
0/
0*
1&
11
00
12
1:!
1E
1-
#350000
b1111110001101010 "
b1111110000101010 "
b100111100000101 !
b1111100000101010 "
b1010 #
b1011100000101010 "
b1011101000101010 "
b100111100100101 !
b1100111100100101 !
b1100111100100111 !
b1101111100100111 !
b1101111000100111 !
b1010101000101010 "
b1010101000101011 "
b10101000101011 "
1R
1^
0v
1~
0<!
1a!
1|!
1Z
0t
0&!
1A!
0J!
0^!
0q!
0U
0~!
0W
0$"
1y!
0v!
0c!
1Q!
0N!
0I!
1G!
0/!
0,!
0x
1\
0[
0!"
0/"
0d!
0@!
0?!
1)!
0%!
0#!
0(!
0}
1y
1n
1f
0b
0a
1%"
0""
0_!
0K!
1S!
0B!
0:!
0u
1)"
1h!
11!
1|
1B
1D
1J
1P
0A
0E
0F
1H
0G
0I
1T!
0j
0r
02!
1e!
1a
0-!
0`!
1P!
0H!
1O!
1/"
1d!
1w!
0%"
1!"
0)
0+
1*
0,
0-
01
15
1(
1.
10
1&"
0]
0)"
0P
0>
1M
0x!
0e!
0P!
0U!
1.!
07!
1%
04
05
0&"
0M
0%
#400000
b1101101000100111 !
b1101101000100110 !
b1110 #
b10101000100011 "
b1101101001100110 !
b1101101001100010 !
b10001000100011 "
b10001000000011 "
b1000000011 "
b1111 #
b1100000011 "
b1101001001100010 !
b1100000111 "
b1101000111 "
b111 #
b1101001001000010 !
b1100001001000010 !
b1100001101000010 !
b1101000110 "
0Z
1c
0l
0{
1&!
19!
0R!
0g!
1T
1X
0R
0Y
0g
0~
1*!
1<!
0L!
0X!
0a!
0/"
1{!
1x!
1o!
0d!
0s!
0j!
1e!
1]!
1[!
0\!
0O!
1?!
1-!
0)!
1%!
1#!
0T!
0n
1j
0a
1[
1%"
1d
0#"
1~!
0y!
1v!
1c!
1N!
0G!
18!
15!
1z
1x
0`
1_
0\
1W
0z!
0h!
1_!
0S!
0m
0@
0H
1I
0J
0L
1`
0f
1a
16!
1`!
1\!
1H!
1s!
1O!
1d!
0w!
0!"
0%"
1r
1$!
0&
0(
1)
0*
02
1]
1:!
1)"
1&"
1r!
1h!
1S!
01!
1'!
1u
1m
0e
0?
1@
1A
1C
0D
1H
1J
1K
1M
1P
1E
1>
1P!
0s!
17!
0j
1*"
1f
0a
14
1-
15
1%
1'
1(
1*
0.
1/
11
12
03
0&"
0M
1j
0x!
0%
#450000
b1100001111000010 !
b1100001111001010 !
b1100001111011010 !
b100001101000110 "
b1100001111011000 !
b101001101000110 "
b1101001101000110 "
b1100001111011001 !
b1100001110011001 !
b1101001101100110 "
b1101001001100110 "
b1111 #
b1100001110111001 !
b1101001110111001 !
b1101001001100111 "
1R
1Z
1{
09!
1^!
1q!
1U
1Y
0^
1o
1v
1~
0*!
13!
1a!
1/"
0{!
1x!
0o!
0f!
0d!
0W!
1D!
0;!
08!
06!
1/!
0-!
1U!
1)!
0%!
0#!
1(!
1}
0z
1T!
0s
0r
0*"
0f
1b
1a
0[
0~!
1$"
0v!
0c!
1>!
0"!
0_
1\
1z!
0:!
1e
0h!
0S!
1B!
0u
0m
0@
0A
1F
0H
0J
1?
0E
1L
0`
1*"
1f
0a
0U!
0)!
1#!
0`!
0P!
0H!
0/"
1{!
0x!
1o!
1d!
1w!
1%"
1!"
0j
0(!
07!
1i!
0\!
0e!
1&
0-
13
0(
0*
1,
01
02
0)"
0P
1/"
0{!
0o!
0.!
1x!
1s!
1(!
0$!
1j
0*"
0f
1a
05
1&"
1)"
0("
0O
1P
1M
0j
1.!
0x!
1%
15
0$
0)"
1("
1O
0P
05
1$
#500000
b1101000110111001 !
b1101001011100111 "
b1101001011101111 "
b1101000110111101 !
b1101101011101111 "
b1111101011101111 "
b1111101011101011 "
b1101000100111101 !
b1011101011101011 "
b1101000100111111 !
b1010101011101011 "
b1101000101111111 !
b111 #
b1010101011101010 "
0R
0Z
0c
1l
10!
1R!
0^!
1g!
0q!
1^
1g
1*!
03!
0E!
0i!
1`!
1\!
1P!
1I!
1H!
0D!
18!
16!
12!
0/!
1-!
1n
0k
1j
1*"
1f
0b
0a
0$"
1v!
0m!
1c!
0Z!
05!
0q
1i
1_
0\
0%"
0z!
1S!
0B!
11!
0|
1m
0'!
0]
0>
0C
1@
0B
1D
0F
1H
0L
1`
0*"
0f
1a
1;!
06!
0s!
1e!
0[!
1{!
1x!
0d!
0n!
0w!
1U!
0.!
1C!
0&
1*
0,
1.
00
12
0/
04
0&"
0e
0m
01!
1:!
1K!
1G
1E
0D
0@
0?
0M
0x!
0/"
1o!
0e!
0\!
0C!
17!
0?!
0j
1f
0a
0%
03
02
0.
1-
1+
1j
#550000
b101 #
b1010101011101000 "
b1010111011101000 "
b1101010101111111 !
b1101010101101111 !
b1101010101101110 !
b1010111011001000 "
b1101010101001110 !
b1010111001001000 "
b1000111001001000 "
b1101010111001110 !
b1001111001001000 "
b1101010110001110 !
b1001111001001001 "
0Y
0v
0~
0*!
13!
1L!
1Z
0S
0{
00!
1J!
1^!
0g!
0V
1#"
1y!
0p!
1f!
1@!
1/!
1s
1k
1b
1[
0W
1m!
0c!
0N!
15!
1"!
1h
0`
0_
1\
1\!
0O!
16!
02!
0-!
0U!
0#!
0y
1*"
1p
0i
0h
1`
0(!
1$!
1.!
0P!
0*"
0f
1a
1#!
1D!
0;!
06!
0\!
1O!
0o!
1d!
1n!
1%"
1]
1e
1m
1u
11!
1B!
1h!
0r!
1z!
1L
0K
1J
1F
1D
1A
1@
1?
1>
1q
0p
1i
1o!
1e!
1P!
07!
1?!
1(!
0$!
0T!
0.!
1f
0a
14
13
12
11
1.
1,
1(
0'
1&
1&"
1M
0q
1T!
1.!
1r
1%
0r
#600000
b1111010110001110 !
b1001111001011001 "
b1001110001011001 "
b1111110110001110 !
b1001110000011001 "
b1111110110000110 !
b1111111110000110 !
b1001110000010001 "
b1111111110000010 !
b1001010000010001 "
b1001010000010101 "
b1101010000010101 "
b1101 #
b1111 #
b1101010000010111 "
b1101000000010111 "
b1111111110010010 !
b1101000000110111 "
b1111111110110010 !
b1100000000110111 "
1V
1R
1S
1c
0l
1t
1{
0&!
0A!
0J!
0R!
0^!
1q!
0g
0o
1v
1~
1E!
1X!
1k!
0{!
1x!
0n!
0]!
1[!
0`!
1\!
0P!
0I!
0H!
1)!
0#!
0T!
1r
0j
1$"
0y!
0v!
0f!
1c!
1Z!
0Q!
1N!
1G!
1,!
0"!
0x
1q
0i
0b
0`
1W
0%"
0#"
0@!
08!
1r!
0_!
0h!
0S!
0K!
0B!
0:!
01!
1|
0m
0]
0>
0@
1B
0D
0E
0F
0G
0H
0J
0I
1K
1%"
0n
0f
1a
1j
0(!
0r
12!
0)!
1#!
1-!
1i!
0\!
1H!
1s!
0e!
0O!
1j!
0[!
0d!
1w!
1$!
1'
0)
0(
0*
0+
0,
0-
0.
10
02
04
0&"
1]
1>
0M
0x!
1e!
0i!
1\!
1P!
0$!
17!
0j
0}
1y
1r
0%
14
1&"
1M
02!
1$!
1%
07!
#650000
b1011111110110010 !
b11111110110010 !
b1011 #
b1010 #
b11111010110010 !
b100000000110111 "
b10111010110010 !
b10111010110000 !
b10101010110000 !
b110000000110111 "
b10101000110000 !
b110000000110110 "
b101000110000 !
b1000110000 !
b110000 !
b110000000111110 "
b110000000111010 "
b10000000111010 "
b10 #
b0 #
b10000000111000 "
b10010000111000 "
b11010000111000 "
0Z
0S
0c
1l
1J!
1^!
1g!
0q!
0U
0T
0V
0X
0R
0^
03!
0<!
0E!
0L!
0X!
0a!
0k!
0t!
0|!
0!"
0w!
1n!
1d!
0j!
1[!
1O!
0H!
1W!
0?!
0D!
1;!
16!
0a
0%"
1""
0d
0$"
0/!
1%!
1z
0s
0k
0[
0W
0Z!
0G!
0>!
05!
0,!
1"!
1x
0\
0("
0z!
0r!
11!
0|
1m
0e
0?
1@
0B
1D
0K
0L
0O
1*"
1U!
1(!
1}
0y
1)!
0#!
0-!
06!
1`!
0s!
0[!
17!
1{!
1x!
0$
0&
0'
1.
00
12
03
0]
0m
1|
1'!
1r!
1h!
1_!
1S!
0&"
0M
1H
1I
1J
1K
1C
1B
0@
0>
0\!
0x!
07!
0U!
0(!
04
02
10
1/
1'
1(
1)
1*
0%
1z!
1:!
0|
0B
1E
1L
1&
1-
00
0:!
0z!
0_!
0I
0L
0E
0-
0&
0)
#700000
b110001 !
b1110001 !
b11011000111000 "
b11011001111000 "
b1111001 !
b1111101 !
b1101101 !
b1 #
b101101101 !
b10101101101 !
b10111101101 !
b10010111101101 !
b10011111101101 !
b1001 #
b11011001111010 "
b11001001111010 "
b10001001111010 "
1T
1R
1S
1&!
1A!
0J!
0^!
1Y
1g
1o
0v
1*!
13!
1<!
1E!
1L!
1k!
0{!
1x!
1p!
0n!
1\!
1Q!
0O!
1I!
1H!
1@!
1?!
0;!
18!
16!
12!
1/!
1-!
1T!
1s
0r
1k
1j
0*"
1[
1b
1W
0""
1d
1~!
1v!
0m!
1Z!
1>!
15!
0"!
0x
0q
1i
1_
0r!
1:!
1m
1z!
0h!
1|
0u
0A
1B
0J
1L
1@
1E
0K
1`
1n
0j
0}
1r
1C!
0)!
1#!
0W!
1D!
06!
0`!
0H!
1s!
0e!
1[!
1{!
0x!
1n!
1w!
1!"
0.!
0o!
0'
1-
12
1&
0(
10
01
1("
0z!
1h!
0S!
1B!
0:!
01!
1u
1]
1>
1A
0D
0E
1F
0H
1J
0L
1O
1o!
1i!
0\!
0C!
17!
1.!
02!
1y
0r
1a
1$
0&
1(
0*
1,
0-
0.
11
14
1)"
0("
0O
1P
07!
1/"
0{!
0o!
15
0$
0)"
1("
1O
0P
05
1$
