Алексей&Александр/vseploxo/simulation/qsim/vseploxo.msim.vcd
$comment
	File created using the following command:
		vcd file vseploxo.msim.vcd -direction
$end
$date
	Fri Jul 22 14:53:33 2016
$end
$version
	ModelSim Version 10.4d
$end
$timescale
	1ps
$end

$scope module lu_vlg_vec_tst $end
$var reg 4 ! a [3:0] $end
$var reg 4 " b [3:0] $end
$var reg 2 # op_sel [1:0] $end
$var wire 1 $ send [3] $end
$var wire 1 % send [2] $end
$var wire 1 & send [1] $end
$var wire 1 ' send [0] $end

$scope module i1 $end
$var wire 1 ( gnd $end
$var wire 1 ) vcc $end
$var wire 1 * unknown $end
$var tri1 1 + devclrn $end
$var tri1 1 , devpor $end
$var tri1 1 - devoe $end
$var wire 1 . send[0]~output_o $end
$var wire 1 / send[1]~output_o $end
$var wire 1 0 send[2]~output_o $end
$var wire 1 1 send[3]~output_o $end
$var wire 1 2 b[0]~input_o $end
$var wire 1 3 op_sel[1]~input_o $end
$var wire 1 4 op_sel[0]~input_o $end
$var wire 1 5 a[0]~input_o $end
$var wire 1 6 m1|Mux3~0_combout $end
$var wire 1 7 b[1]~input_o $end
$var wire 1 8 a[1]~input_o $end
$var wire 1 9 m1|Mux2~0_combout $end
$var wire 1 : b[2]~input_o $end
$var wire 1 ; a[2]~input_o $end
$var wire 1 < m1|Mux1~0_combout $end
$var wire 1 = b[3]~input_o $end
$var wire 1 > a[3]~input_o $end
$var wire 1 ? m1|Mux0~0_combout $end
$upscope $end
$upscope $end
$enddefinitions $end
#0
$dumpvars
b0 !
b0 "
b0 #
0'
0&
0%
0$
0(
1)
x*
1+
1,
1-
0.
0/
00
01
02
03
04
05
06
07
08
09
0:
0;
0<
0=
0>
0?
$end
#60000
b1 !
15
#100000
b1 #
14
16
1.
1'
#120000
b11 !
b10 !
05
18
19
06
0.
1/
1&
0'
#180000
b11 !
15
16
1.
1'
#200000
b11 #
b10 #
04
13
#240000
b111 !
b101 !
b100 !
05
08
1;
1<
09
06
0.
0/
10
1%
0&
0'
#300000
b1 "
b11 #
b101 !
15
14
12
1?
0<
19
1/
00
11
1$
0%
1&
#360000
b111 !
b110 !
05
18
09
16
1.
0/
0&
1'
#400000
b1 #
b0 #
04
03
0?
06
0.
01
0$
0'
#420000
b111 !
15
16
1.
1'
#480000
b1111 !
b1011 !
b1001 !
b1000 !
05
08
0;
1>
06
0.
0'
#500000
b1 #
14
1?
16
1.
11
1$
1'
#540000
b1001 !
15
#600000
b11 "
b10 "
b11 #
b1011 !
b10 #
b1010 !
05
18
04
13
02
17
06
0.
0'
#660000
b1011 !
15
16
1.
1'
#700000
b11 #
14
0?
1<
06
0.
10
01
0$
1%
0'
#720000
b1111 !
b1101 !
b1100 !
05
08
1;
0<
19
16
1.
1/
00
0%
1&
1'
#780000
b1101 !
15
06
0.
0'
#800000
b1 #
b0 #
04
03
09
0/
0&
#840000
b1111 !
b1110 !
05
18
19
1/
1&
#900000
b11 "
b1 #
b1111 !
15
14
12
16
1?
1<
10
11
1.
1'
1$
1%
#960000
b111 !
b11 !
b1 !
b0 !
05
08
0;
0>
0?
0<
00
01
0$
0%
